p2/ac/assignments/guias/G09/842536-Mateus_Henrique_Medeiros_Diniz/Guia_0906.vcd
$date
	Sat Sep 28 00:24:33 2024
$end
$version
	Icarus Verilog
$end
$timescale
	1s
$end
$scope module Guia_0906 $end
$var wire 1 ! clock $end
$upscope $end
$scope module Guia_0906 $end
$var wire 1 " p $end
$upscope $end
$enddefinitions $end
$comment Show the parameter values. $end
$dumpall
$end
#0
$dumpvars
0"
0!
$end
#12
1!
#24
1"
0!
#29
0"
#34
1"
#36
1!
#48
0"
0!
#53
1"
#58
0"
#60
1!
#72
1"
0!
#77
0"
#82
1"
#84
1!
#96
0"
0!
#101
1"
#106
0"
#108
1!
#120
1"
0!
#125
0"
#130
1"
#132
1!
#144
0"
0!
#149
1"
#154
0"
#156
1!
#168
1"
0!
#173
0"
#178
1"
#180
1!
#192
0"
0!
#197
1"
#202
0"
#204
1!
#216
1"
0!
#221
0"
#226
1"
#228
1!
#240
0"
0!
#245
1"
#250
0"
#252
1!
#264
1"
0!
#269
0"
#274
1"
#276
1!
#288
0"
0!
#293
1"
#298
0"
#300
1!
#312
1"
0!
#317
0"
#322
1"
#324
1!
#336
0"
0!
#341
1"
#346
0"
#348
1!
#360
1"
0!
#365
0"
#370
1"
