p2/ac/assignments/guias/G09/842536-Mateus_Henrique_Medeiros_Diniz/Guia_0907.vcd
$date
	Sat Sep 28 00:27:16 2024
$end
$version
	Icarus Verilog
$end
$timescale
	1s
$end
$scope module Guia_0907 $end
$var wire 1 ! clock $end
$upscope $end
$scope module Guia_0907 $end
$var wire 1 " p $end
$upscope $end
$enddefinitions $end
$comment Show the parameter values. $end
$dumpall
$end
#0
$dumpvars
0"
0!
$end
#12
1"
1!
#20
0"
#24
0!
#36
1"
1!
#44
0"
#48
0!
#60
1"
1!
#68
0"
#72
0!
#84
1"
1!
#92
0"
#96
0!
#108
1"
1!
#116
0"
#120
0!
#132
1"
1!
#140
0"
#144
0!
#156
1"
1!
#164
0"
#168
0!
#180
1"
1!
#188
0"
#192
0!
#204
1"
1!
#212
0"
#216
0!
#228
1"
1!
#236
0"
#240
0!
#252
1"
1!
#260
0"
#264
0!
#276
1"
1!
#284
0"
#288
0!
#300
1"
1!
#308
0"
#312
0!
#324
1"
1!
#332
0"
#336
0!
#348
1"
1!
#356
0"
#360
0!
#372
1"
1!
