p2/ac/assignments/guias/G09/842536-Mateus_Henrique_Medeiros_Diniz/Guia_0903.vcd
$date
	Fri Sep 27 23:49:25 2024
$end
$version
	Icarus Verilog
$end
$timescale
	1s
$end
$scope module Guia_0903 $end
$var wire 1 ! clock $end
$upscope $end
$scope module Guia_0903 $end
$var wire 1 " p $end
$upscope $end
$enddefinitions $end
$comment Show the parameter values. $end
$dumpall
$end
#0
$dumpvars
1"
0!
$end
#4
0"
#8
1"
#12
0"
1!
#16
1"
#20
0"
#24
1"
0!
#28
0"
#32
1"
#36
0"
1!
#40
1"
#44
0"
#48
1"
0!
#52
0"
#56
1"
#60
0"
1!
#64
1"
#68
0"
#72
1"
0!
#76
0"
#80
1"
#84
0"
1!
#88
1"
#92
0"
#96
1"
0!
#100
0"
#104
1"
#108
0"
1!
#112
1"
#116
0"
#120
1"
0!
#124
0"
#128
1"
#132
0"
1!
#136
1"
#140
0"
#144
1"
0!
#148
0"
#152
1"
#156
0"
1!
#160
1"
#164
0"
#168
1"
0!
#172
0"
#176
1"
#180
0"
1!
#184
1"
#188
0"
#192
1"
0!
#196
0"
#200
1"
#204
0"
1!
#208
1"
#212
0"
#216
1"
0!
#220
0"
#224
1"
#228
0"
1!
#232
1"
#236
0"
#240
1"
0!
#244
0"
#248
1"
#252
0"
1!
#256
1"
#260
0"
#264
1"
0!
#268
0"
#272
1"
#276
0"
1!
#280
1"
#284
0"
#288
1"
0!
#292
0"
#296
1"
#300
0"
1!
#304
1"
#308
0"
#312
1"
0!
#316
0"
#320
1"
#324
0"
1!
#328
1"
#332
0"
#336
1"
0!
#340
0"
#344
1"
#348
0"
1!
#352
1"
#356
0"
#360
1"
0!
#364
0"
#368
1"
#372
0"
1!
#376
1"
