p2/ac/assignments/guias/G09/842536-Mateus_Henrique_Medeiros_Diniz/Guia_0904.vcd
$date
	Sat Sep 28 00:03:57 2024
$end
$version
	Icarus Verilog
$end
$timescale
	1s
$end
$scope module Guia_0904 $end
$var wire 1 ! clock $end
$upscope $end
$scope module Guia_0904 $end
$var wire 1 " p $end
$upscope $end
$enddefinitions $end
$comment Show the parameter values. $end
$dumpall
$end
#0
$dumpvars
0"
0!
$end
#12
1!
#24
0!
#36
1!
#48
1"
0!
#60
1!
#72
0!
#84
1!
#96
0"
0!
#108
1!
#120
0!
#132
1!
#144
1"
0!
#156
1!
#168
0!
#180
1!
#192
0"
0!
#204
1!
#216
0!
#228
1!
#240
1"
0!
#252
1!
#264
0!
#276
1!
#288
0"
0!
#300
1!
#312
0!
#324
1!
#336
1"
0!
